{
 "actions": [],
 "allow_rename": 1,
 "creation": "2023-08-31 09:16:42.710643",
 "default_view": "List",
 "doctype": "DocType",
 "editable_grid": 1,
 "engine": "InnoDB",
 "field_order": [
  "onboarding",
  "api_token",
  "base_url"
 ],
 "fields": [
  {
   "fieldname": "api_token",
   "fieldtype": "Password",
   "label": "API Token"
  },
  {
   "default": "https://openapi.agicap.com",
   "fieldname": "base_url",
   "fieldtype": "Data",
   "label": "Agicap API Base URL"
  },
  {
   "fieldname": "onboarding",
   "fieldtype": "HTML",
   "label": "Onboarding"
  }
 ],
 "index_web_pages_for_search": 1,
 "issingle": 1,
 "links": [],
 "modified": "2023-08-31 12:10:34.427675",
 "modified_by": "Administrator",
 "module": "Agicap",
 "name": "Agicap Settings",
 "owner": "Administrator",
 "permissions": [
  {
   "create": 1,
   "delete": 1,
   "email": 1,
   "print": 1,
   "read": 1,
   "role": "System Manager",
   "select": 1,
   "share": 1,
   "write": 1
  }
 ],
 "sort_field": "modified",
 "sort_order": "DESC",
 "states": []
}