{
 "action": "Create Entry",
 "action_label": "Cr\u00e9ez un compte",
 "creation": "2023-09-01 03:57:30.786783",
 "description": "Cr\u00e9ez au moins un compte par devise pour chaque connexion.  \nVos factures de vente et d'achat seront synchronis\u00e9es en association avec ce compte.",
 "docstatus": 0,
 "doctype": "Onboarding Step",
 "idx": 0,
 "is_complete": 0,
 "is_single": 0,
 "is_skipped": 0,
 "language": "fr",
 "modified": "2023-09-01 03:57:34.769375",
 "modified_by": "Administrator",
 "name": "Agicap Accounts - FR",
 "owner": "Administrator",
 "reference_document": "Agicap Account",
 "show_form_tour": 0,
 "show_full_form": 0,
 "title": "Cr\u00e9ez un compte dans votre devise",
 "validate_action": 1
}