{
 "action": "Update Settings",
 "action_label": "Update your settings",
 "creation": "2023-08-31 12:47:46.470070",
 "description": "Get your token on your <a href=\"https://app.agicap.com/fr/app/parametres/openapi\" target=\"_blank\">Agicap dashboard</a>\".  \nMake sure Agicap's API URL is correct.",
 "docstatus": 0,
 "doctype": "Onboarding Step",
 "idx": 0,
 "is_complete": 0,
 "is_single": 1,
 "is_skipped": 0,
 "language": "en",
 "modified": "2023-09-01 03:58:25.865044",
 "modified_by": "Administrator",
 "name": "Agicap Token - EN",
 "owner": "Administrator",
 "reference_document": "Agicap Settings",
 "show_form_tour": 0,
 "show_full_form": 0,
 "title": "Get a token",
 "validate_action": 0
}